{
    "fluentMethods": true,
    "relationships": [
        {
            "relationshipName": "clientAccount",
            "otherEntityName": "ClientAccount",
            "relationshipType": "one-to-one",
            "otherEntityField": "account_id",
            "ownerSide": true,
            "otherEntityRelationshipName": "account_id"
        }
    ],
    "fields": [
        {
            "fieldName": "applicationName",
            "fieldType": "String",
            "fieldValidateRules": [
                "required",
                "minlength",
                "maxlength"
            ],
            "fieldValidateRulesMinlength": "3",
            "fieldValidateRulesMaxlength": "200"
        },
        {
            "fieldName": "applicationDescription",
            "fieldType": "String",
            "fieldValidateRules": [
                "maxlength"
            ],
            "fieldValidateRulesMaxlength": "1000"
        },
        {
            "fieldName": "active",
            "fieldType": "Boolean"
        }
    ],
    "changelogDate": "20170114062308",
    "dto": "no",
    "service": "serviceClass",
    "entityTableName": "cm_client_application",
    "pagination": "pagination"
}
