{
    "fluentMethods": true,
    "relationships": [],
    "fields": [
        {
            "fieldName": "name",
            "fieldType": "String",
            "fieldValidateRules": [
                "required",
                "minlength",
                "maxlength"
            ],
            "fieldValidateRulesMinlength": "3",
            "fieldValidateRulesMaxlength": "100"
        },
        {
            "fieldName": "status",
            "fieldType": "Boolean"
        }
    ],
    "changelogDate": "20161221110937",
    "dto": "no",
    "service": "serviceClass",
    "entityTableName": "organisation",
    "pagination": "pagination"
}
